Transaction Code,Obfuscated Key,Account,Account Group,Meter,Email,Termination Date
CE,17375,9935171359,4856413,06573968,,,ALTOU   
CE,17912,2431450905,0,06699732,,,ALTOU   
CE,17913,2648863907,7892292,06687482,,,ALTOU   
CE,17914,2652547238,5443415,06556169,,,ALTOU   
CE,17915,2779006676,7545596,06556290,,,ALTOU   
CE,17916,3611929806,6842938,06699321,,,ALTOUCP2
CE,17917,3896865056,4363507,06583659,,,ALTOU   
CE,17918,5195656453,0,06584753,,,ALTOU   
CE,17919,5477386070,7086394,06700101,,,ALTOU   
CE,17920,6440618688,0,06584789,,,ALTOU   
CE,17921,6799007217,0,06686806,,,ALTOU   
CE,17922,7301342635,7647435,06574761,,,ALTOUCP2
CE,17923,7525147154,7174427,06578883,,,ADTOUCP2
CE,17924,7720844750,6222585,06694825,,,ALTOU   
CE,17925,7959304750,7359747,06582843,,,ALTOU   
CE,17926,8754464034,7545596,06582963,,,ALTOU   
CE,17927,9935171359,4856413,06573968,,,ALTOU   
CE,17928,2189133339,6588382,06556397,,,ALTOU   
CE,17929,3000920500,0,06687230,,,ALTOU   
CE,17930,3121196953,7906758,06692868,,,ALTOU   
CE,17931,3777912903,1292995,06700849,,,ALTOU   
CE,17932,4613078125,8386215,06691925,,,ALTOU   
CE,17933,6479370642,5222681,06687825,,,ALTOU   
CE,17934,8809553953,0,06686657,,,ALTOU   
CE,17935,8864260013,8386215,06691922,,,ALTOU   
CU,17375,9935171359,4856413,06573968,,09082016,
CE,19919,680161488,7208471,06685991,,,ALTOUCP2
CU,17919,5477386070,7086394,06700101,,12262016,
CU,17928,2189133339,6588382,06556397,,01122017,
CE,20650,8881203405,7872377,06692670,,,ALTOU   
CE,20651,742259687,7872377,06562495,,,ALTOU   
CE,20652,8374208918,4396952,06694637,,,PAT1    
CE,20653,1990361059,1571444,06693379,,,ALTOU   
CE,20654,4793640574,5653537,06698138,,,ALTOUCP2
CE,20953,9159064275,7189501,06692606,,,ALTOUCP2
CE,20954,1089703445,7189501,06694568,,,ALTOU   
CE,20955,1235066977,7189501,06692726,,,ALTOU   
CE,21077,8273425486,8608269,06583881,,,ALTOUCP2
CE,21078,932004816,8608269,06700265,,,ALTOUCP2
CE,21079,8891951016,7103831,06697724,,,ALTOU   
CE,21558,6317096563,5822087,06693465,,,ALTOU   
CU,20650,8881203405,7872377,06692670,,03132017,
CE,21737,5746263048,8812036,06585111,,,ALTOU   
CE,21738,7795459029,7872055,06691306,,,ALTOU   
CE,21739,4725383786,7013424,06686402,,,ALTOUCP2
CE,21740,2219043984,0,06576416,,,ALTOUCP2
CE,21741,5594087354,7465070,06692571,,,ALTOUCP2
CE,21742,1051490497,7465070,06576418,,,ALTOUCP2
CE,21743,3749564504,5381688,06692101,,,ALTOU   
CE,21744,1526906802,3853481,06696134,,,ALTOU   
CE,21802,7021653553,8216489,06698097,,,ALTOU   
CE,21803,1212622628,8216489,06701125,,,ALTOU   
CE,21866,2038786697,0,06556819,,,ALTOUCP2
CE,21867,3298382441,4947688,06701168,,,ALTOU   
CE,21868,6280918814,4947688,06693262,,,ALTOU   
CE,21869,163649901,0,06694709,,,ALTOU   
CE,21870,9399546723,7865992,06698718,,,ALTOUCP2
CE,21906,3038171839,5612384,09000809,,,
CU,21906,3038171839,5612384,09000809,,03282017,
