04/03/2017 09:57:54 AM - ============================================================
04/03/2017 09:57:55 AM - Uploading: CEN_D_DRAMSTEM_12308_CONSUMPTION_20170329_03292017110153_ESPI2-1_01-01.xml
04/03/2017 09:57:55 AM - Uploading: CEN_D_DRAMSTEM_12308_CONSUMPTION_20170326_03262017110138_ESPI2-1_01-01.xml
04/03/2017 09:57:55 AM - Uploading: CEN_C_DRAMSTEM_12308_CONSUMPTION_20170330_03302017110103_ESPI2-1_01-01.xml
04/03/2017 09:57:56 AM - Uploading: CEN_D_DRAMSTEM_12308_CONSUMPTION_20170330_03302017110148_ESPI2-1_01-01.xml
04/03/2017 09:57:57 AM - Uploading: CEN_C_DRAMSTEM_12308_CONSUMPTION_20170331_03312017110106_ESPI2-1_01-01.xml
04/03/2017 09:57:58 AM - Uploading: CEN_D_DRAMSTEM_12308_CONSUMPTION_20170331_03312017110148_ESPI2-1_01-01.xml
04/03/2017 09:57:58 AM - Uploading: CEN_C_DRAMSTEM_12308_CONSUMPTION_20170401_04012017110105_ESPI2-1_01-01.xml
04/03/2017 09:58:02 AM - HTTP Upload: OK
04/03/2017 09:58:02 AM - ====== Imported to Mets! Review log file for errors! =======
