04/10/2017 09:32:27 AM - ============================================================
04/10/2017 09:32:27 AM - Uploading: CEN_C_DRAMSTEM_12308_CONSUMPTION_20170406_04062017110107_ESPI2-1_01-01.xml
04/10/2017 09:32:28 AM - Uploading: CEN_D_DRAMSTEM_12308_CONSUMPTION_20170406_04062017110151_ESPI2-1_01-01.xml
04/10/2017 09:32:29 AM - Uploading: CEN_D_DRAMSTEM_12308_CONSUMPTION_20170407_04072017110147_ESPI2-1_01-01.xml
04/10/2017 09:32:30 AM - Uploading: CEN_D_DRAMSTEM_12308_CONSUMPTION_20170408_04082017110149_ESPI2-1_01-01.xml
04/10/2017 09:32:30 AM - Uploading: CEN_C_DRAMSTEM_12308_CONSUMPTION_20170407_04072017110104_ESPI2-1_01-01.xml
04/10/2017 09:32:30 AM - Uploading: CEN_C_DRAMSTEM_12308_CONSUMPTION_20170408_04082017110103_ESPI2-1_01-01.xml
04/10/2017 09:32:30 AM - Uploading: CEN_C_DRAMSTEM_12308_CONSUMPTION_20170409_04092017110104_ESPI2-1_01-01.xml
04/10/2017 09:32:35 AM - HTTP Upload: OK
04/10/2017 09:32:35 AM - ====== Imported to Mets! Review log file for errors! =======
